desafio 4 BD
…
A tabela tidy apresenta todos os voos da aeronave em formato organizado e limpo, contendo as seguintes informações:

Identificação: Número de cauda, companhia aérea e número do voo

Trajeto: Aeroporto de origem e destino de cada voo

Temporal: Ano, mês, dia, horário de partida e chegada

Desempenho: Tempo de voo, distância percorrida

Sequência: Data completa do voo para ordenamento temporal

Esta tabela permite uma análise detalhada da operação da aeronave, mostrando a sequência cronológica de voos, rotas realizadas e métricas de desempenho de cada trecho.

# A tibble: 1,938 × 6
   TAIL_NUMBER ORIGIN_AIRPORT DESTINATION_AIRPORT   DAY MONTH  YEAR
   <chr>       <chr>          <chr>               <dbl> <dbl> <dbl>
 1 N431WN      DCA            HOU                     1     1  2015
 2 N431WN      HOU            BOS                     1     1  2015
 3 N431WN      BOS            BWI                     1     1  2015
 4 N431WN      BWI            MCI                     1     1  2015
 5 N431WN      MCI            LAX                     2     1  2015
 6 N431WN      LAX            LAS                     2     1  2015
 7 N431WN      LAS            ICT                     2     1  2015
 8 N431WN      ICT            DAL                     2     1  2015
 9 N431WN      DAL            MDW                     2     1  2015
10 N431WN      MDW            ATL                     2     1  2015
# ℹ 1,928 more rows
…
